{
    "application": {
        "id": "",
        "title": "listarordensmanut",
        "type": "SAP_UI5_Component",
        "componentUrl": "/",
        "appUrl": "#hitsapfiorilistarordensmanut-Display",
        "navigationComponentName": "hit.sap.fiori.ListarOrdensManut",
        "intentSemanticObject": "hit.sap.fiori.listarordensmanut",
        "intentAction": "Display",
        "html5ApplicationName": "hitsapfiorilistarordensmanu",
        "HCPParentApplicationName": ""
    },
    "assignment": {
        "groups": [
            "133f66d1-b22c-4f31-a046-d86926f0164a"
        ],
        "contentPackages": [
            "d0c74070-9fb7-4a65-82d0-4aa49c0b10ef"
        ],
        "categories": []
    },
    "tile": {
        "type": "StaticTile",
        "title": "Redondinho",
        "subtitle": "Subtitle",
        "searchKeywords": "Redondinho,Subtitle",
        "displayIconUrl": "sap-icon://approvals",
        "displayInfoText": "",
        "size": "1x1",
        "serviceURL": "",
        "refreshInterval": ""
    }
}